{
    "definition": {
        "$schema": "https://schema.management.azure.com/providers/Microsoft.Logic/schemas/2016-06-01/workflowdefinition.json#",
        "actions": {
            "Compose": {
                "inputs": "@utcNow()",
                "runAfter": {},
                "type": "Compose"
            },
            "Condition_2": {
                "actions": {
                    "Create_handle_to_file": {
                        "inputs": {
                            "authentication": {
                                "audience": "https://husdltu1lg.blob.core.windows.net/",
                                "type": "ManagedServiceIdentity"
                            },
                            "headers": {
                                "Content-Length": "0",
                                "x-ms-blob-type": "AppendBlob",
                                "x-ms-version": "2019-07-07"
                            },
                            "method": "PUT",
                            "uri": "https://husdltu1lg.blob.core.windows.net/pex360-audit-logs/pex360-audit-@{outputs('Compose')}.log"
                        },
                        "runAfter": {},
                        "type": "Http"
                    },
                    "For_each_2": {
                        "actions": {
                            "Append_to_string_variable_2": {
                                "inputs": {
                                    "name": "Log_rows",
                                    "value": "@{items('For_each_2')?['LogEntry']}\n"
                                },
                                "runAfter": {},
                                "type": "AppendToStringVariable"
                            }
                        },
                        "foreach": "@body('Run_query_and_list_results')?['value']",
                        "runAfter": {
                            "Create_handle_to_file": [
                                "Succeeded"
                            ]
                        },
                        "type": "Foreach"
                    },
                    "Increment_variable": {
                        "inputs": {
                            "name": "Payload_size",
                            "value": "@length(variables('Log_rows'))"
                        },
                        "runAfter": {
                            "For_each_2": [
                                "Succeeded"
                            ]
                        },
                        "type": "IncrementVariable"
                    },
                    "Until": {
                        "actions": {
                            "Append_to_a_file": {
                                "inputs": {
                                    "authentication": {
                                        "audience": "https://husdltu1lg.blob.core.windows.net/",
                                        "type": "ManagedServiceIdentity"
                                    },
                                    "body": "@substring(variables('Log_rows'),mul(iterationIndexes('Until'),4000000),if(greater(variables('Payload_size'),4000000),4000000,variables('Payload_size')))",
                                    "headers": {
                                        "Content-Length": "0",
                                        "x-ms-version": "2019-07-07"
                                    },
                                    "method": "PUT",
                                    "queries": {
                                        "comp": "appendblock"
                                    },
                                    "uri": "https://husdltu1lg.blob.core.windows.net/pex360-audit-logs/pex360-audit-@{outputs('Compose')}.log"
                                },
                                "runAfter": {},
                                "type": "Http"
                            },
                            "Decrement_variable": {
                                "inputs": {
                                    "name": "Payload_size",
                                    "value": 4000000
                                },
                                "runAfter": {
                                    "Append_to_a_file": [
                                        "Succeeded"
                                    ]
                                },
                                "type": "DecrementVariable"
                            }
                        },
                        "expression": "@lessOrEquals(variables('Payload_size'), 0)",
                        "limit": {
                            "count": 60,
                            "timeout": "PT1H"
                        },
                        "runAfter": {
                            "Increment_variable": [
                                "Succeeded"
                            ]
                        },
                        "type": "Until"
                    }
                },
                "expression": {
                    "and": [
                        {
                            "greater": [
                                "@length(string(body('Run_query_and_list_results')?['value']))",
                                2
                            ]
                        }
                    ]
                },
                "runAfter": {
                    "Initialize_variable_2": [
                        "Succeeded"
                    ]
                },
                "type": "If"
            },
            "Initialize_variable": {
                "inputs": {
                    "variables": [
                        {
                            "name": "Log_rows",
                            "type": "string"
                        }
                    ]
                },
                "runAfter": {
                    "Run_query_and_list_results": [
                        "Succeeded"
                    ]
                },
                "type": "InitializeVariable"
            },
            "Initialize_variable_2": {
                "inputs": {
                    "variables": [
                        {
                            "name": "Payload_size",
                            "type": "integer"
                        }
                    ]
                },
                "runAfter": {
                    "Initialize_variable": [
                        "Succeeded"
                    ]
                },
                "type": "InitializeVariable"
            },
            "Run_query_and_list_results": {
                "inputs": {
                    "body": "let getDate0 = (t:datetime, hour:long, minute:long ) { make_datetime(datetime_part(\"Year\", t),datetime_part(\"Month\", t),datetime_part(\"Day\", t),hour,minute,0.000) };\nlet getDate = (t:datetime, minute:long ) { iif(minute < 60, getDate0(t, datetime_part(\"Hour\", t), minute),getDate0(t, datetime_part(\"Hour\", t) + 1, 0) ) };\nlet getStartDate = (t:datetime, endMinutes:long) { \n    iif(endMinutes == 0, \n        getDate0(t, datetime_part(\"Hour\", t) - 1, 45),\n        getDate(t, endMinutes - 15))\n};\nlet queryDate = todatetime('@{outputs('Compose')}') - time(15min);\nContainerLog\n| extend app = extractjson(\"$.app\", LogEntry)\n| extend type = extractjson(\"$.type\", LogEntry)\n| extend identity = extractjson(\"$.targetIdentity\", LogEntry)\n| where type == \"AUDIT\" and app == \"pex360-api\"\n| where identity matches regex \"[0-3][0-9][0-1][0-9][0-9][0-9][+-A][0-9][0-9][0-9][0-9A-Z]\"\n| extend endMin = (datetime_part(\"Minute\", queryDate)/15)*15\n| extend startTime = getStartDate(queryDate, endMin)\n| extend endTime = startTime + time(15min)\n| where TimeGenerated >= startTime and TimeGenerated < endTime\n| project LogEntry",
                    "host": {
                        "connection": {
                            "name": "@parameters('$connections')['azuremonitorlogs']['connectionId']"
                        }
                    },
                    "method": "post",
                    "path": "/queryData",
                    "queries": {
                        "resourcegroups": "husdl-tu1-monitoring",
                        "resourcename": "husdl-tu1-loganalytics",
                        "resourcetype": "Log Analytics Workspace",
                        "subscriptions": "27b2a9c9-89f6-44cf-b4ec-74df29dce1fd",
                        "timerange": "Set in query"
                    }
                },
                "runAfter": {
                    "Compose": [
                        "Succeeded"
                    ]
                },
                "runtimeConfiguration": {
                    "secureData": {
                        "properties": [
                            "outputs"
                        ]
                    }
                },
                "type": "ApiConnection"
            }
        },
        "contentVersion": "1.0.0.0",
        "outputs": {},
        "parameters": {
            "$connections": {
                "defaultValue": {},
                "type": "Object"
            }
        },
        "triggers": {
            "Recurrence": {
                "recurrence": {
                    "frequency": "Day",
                    "interval": 1,
                    "schedule": {
                        "hours": [
                            "0",
                            "1",
                            "2",
                            "3",
                            "4",
                            "5",
                            "6",
                            "7",
                            "8",
                            "9",
                            "10",
                            "11",
                            "12",
                            "13",
                            "14",
                            "15",
                            "16",
                            "17",
                            "18",
                            "19",
                            "20",
                            "21",
                            "22",
                            "23"
                        ],
                        "minutes": [
                            1,
                            16,
                            31,
                            46
                        ]
                    }
                },
                "type": "Recurrence"
            }
        }
    },
    "parameters": {
        "$connections": {
            "value": {
                "azuremonitorlogs": {
                    "connectionId": "/subscriptions/27b2a9c9-89f6-44cf-b4ec-74df29dce1fd/resourceGroups/husdl-tu1-services/providers/Microsoft.Web/connections/azuremonitorlogs",
                    "connectionName": "azuremonitorlogs",
                    "id": "/subscriptions/27b2a9c9-89f6-44cf-b4ec-74df29dce1fd/providers/Microsoft.Web/locations/northeurope/managedApis/azuremonitorlogs"
                }
            }
        }
    }
}